…
```r
inner = inner_join(flights, weather) 
```

```
## Joining, by = c("year", "month", "day", "origin", "hour", "time_hour")
```

```r
inner
```

```
## # A tibble: 335,220 × 28
##     year month   day dep_time sched_dep_time dep_delay arr_time sched_arr_time
##    <int> <int> <int>    <int>          <int>     <dbl>    <int>          <int>
##  1  2013     1     1      517            515         2      830            819
##  2  2013     1     1      533            529         4      850            830
##  3  2013     1     1      542            540         2      923            850
##  4  2013     1     1      544            545        -1     1004           1022
##  5  2013     1     1      554            600        -6      812            837
##  6  2013     1     1      554            558        -4      740            728
##  7  2013     1     1      555            600        -5      913            854
##  8  2013     1     1      557            600        -3      709            723
##  9  2013     1     1      557            600        -3      838            846
## 10  2013     1     1      558            600        -2      753            745
## # … with 335,210 more rows, and 20 more variables: arr_delay <dbl>,
## #   carrier <chr>, flight <int>, tailnum <chr>, origin <chr>, dest <chr>,
## #   air_time <dbl>, distance <dbl>, hour <dbl>, minute <dbl>, time_hour <dttm>,
## #   temp <dbl>, dewp <dbl>, humid <dbl>, wind_dir <dbl>, wind_speed <dbl>,
## #   wind_gust <dbl>, precip <dbl>, pressure <dbl>, visib <dbl>
```

If you look closely the flights data, you notice that **there are multiple data points that share same year, same month, same day, same origin, same hour, same time_hour in flights data** while there's only one unique data point that share the same year, same month, same day, same origin, same hour, same time_hour in weather data. Therefore if you try to inner_join the two data, two data is combined such that multiple data points matched for each value combination of year, month, day, origin, hour, time_hour, resulting in the number of observations in the combined data to exceed the number of observation in the weather data. For example, as you could notice from below, there are 18 data points that correspond to 6 o'clock January 1, 2013,  whose flight origin is "EWR" in flights data. Therefore all 18 data points append to create the inner joined data. 



```r
flights %>% group_by(year, month, day, origin, hour, time_hour) %>% summarize(count=n())
```

```
## `summarise()` has grouped output by 'year', 'month', 'day', 'origin', 'hour'. You can override using the `.groups` argument.
```

```
## # A tibble: 19,486 × 7
## # Groups:   year, month, day, origin, hour [19,486]
##     year month   day origin  hour time_hour           count
##    <int> <int> <int> <chr>  <dbl> <dttm>              <int>
##  1  2013     1     1 EWR        5 2013-01-01 05:00:00     2
##  2  2013     1     1 EWR        6 2013-01-01 06:00:00    18
##  3  2013     1     1 EWR        7 2013-01-01 07:00:00    12
##  4  2013     1     1 EWR        8 2013-01-01 08:00:00    20
##  5  2013     1     1 EWR        9 2013-01-01 09:00:00    19
##  6  2013     1     1 EWR       10 2013-01-01 10:00:00    18
##  7  2013     1     1 EWR       11 2013-01-01 11:00:00    11
##  8  2013     1     1 EWR       12 2013-01-01 12:00:00    22
##  9  2013     1     1 EWR       13 2013-01-01 13:00:00    28
## 10  2013     1     1 EWR       14 2013-01-01 14:00:00    18
## # … with 19,476 more rows
```
…
```r
left = left_join(flights, weather)
```

```
## Joining, by = c("year", "month", "day", "origin", "hour", "time_hour")
```

```r
left 
```

```
## # A tibble: 336,776 × 28
##     year month   day dep_time sched_dep_time dep_delay arr_time sched_arr_time
##    <int> <int> <int>    <int>          <int>     <dbl>    <int>          <int>
##  1  2013     1     1      517            515         2      830            819
##  2  2013     1     1      533            529         4      850            830
##  3  2013     1     1      542            540         2      923            850
##  4  2013     1     1      544            545        -1     1004           1022
##  5  2013     1     1      554            600        -6      812            837
##  6  2013     1     1      554            558        -4      740            728
##  7  2013     1     1      555            600        -5      913            854
##  8  2013     1     1      557            600        -3      709            723
##  9  2013     1     1      557            600        -3      838            846
## 10  2013     1     1      558            600        -2      753            745
## # … with 336,766 more rows, and 20 more variables: arr_delay <dbl>,
## #   carrier <chr>, flight <int>, tailnum <chr>, origin <chr>, dest <chr>,
## #   air_time <dbl>, distance <dbl>, hour <dbl>, minute <dbl>, time_hour <dttm>,
## #   temp <dbl>, dewp <dbl>, humid <dbl>, wind_dir <dbl>, wind_speed <dbl>,
## #   wind_gust <dbl>, precip <dbl>, pressure <dbl>, visib <dbl>
```
…
```r
right = right_join(flights, weather)
```

```
## Joining, by = c("year", "month", "day", "origin", "hour", "time_hour")
```

```r
right
```

```
## # A tibble: 341,957 × 28
##     year month   day dep_time sched_dep_time dep_delay arr_time sched_arr_time
##    <int> <int> <int>    <int>          <int>     <dbl>    <int>          <int>
##  1  2013     1     1      517            515         2      830            819
##  2  2013     1     1      533            529         4      850            830
##  3  2013     1     1      542            540         2      923            850
##  4  2013     1     1      544            545        -1     1004           1022
##  5  2013     1     1      554            600        -6      812            837
##  6  2013     1     1      554            558        -4      740            728
##  7  2013     1     1      555            600        -5      913            854
##  8  2013     1     1      557            600        -3      709            723
##  9  2013     1     1      557            600        -3      838            846
## 10  2013     1     1      558            600        -2      753            745
## # … with 341,947 more rows, and 20 more variables: arr_delay <dbl>,
## #   carrier <chr>, flight <int>, tailnum <chr>, origin <chr>, dest <chr>,
## #   air_time <dbl>, distance <dbl>, hour <dbl>, minute <dbl>, time_hour <dttm>,
## #   temp <dbl>, dewp <dbl>, humid <dbl>, wind_dir <dbl>, wind_speed <dbl>,
## #   wind_gust <dbl>, precip <dbl>, pressure <dbl>, visib <dbl>
```
…
