…
```
##  [1] "name"       "height"     "mass"       "hair_color" "skin_color"
##  [6] "eye_color"  "birth_year" "sex"        "gender"     "homeworld" 
## [11] "species"
```

### Select and Filter
Let's select only the name, gender, and homeworld variables

```r
select(our_data, c(name, gender, homeworld))
```

```
## # A tibble: 87 × 3
##    name               gender    homeworld
##    <chr>              <chr>     <chr>    
##  1 Luke Skywalker     masculine Tatooine 
##  2 C-3PO              masculine Tatooine 
##  3 R2-D2              masculine Naboo    
##  4 Darth Vader        masculine Tatooine 
##  5 Leia Organa        feminine  Alderaan 
##  6 Owen Lars          masculine Tatooine 
##  7 Beru Whitesun lars feminine  Tatooine 
##  8 R5-D4              masculine Tatooine 
##  9 Biggs Darklighter  masculine Tatooine 
## 10 Obi-Wan Kenobi     masculine Stewjon  
## # … with 77 more rows
```
Notice that this didn't save anything in our global environment! If you want to save this new dataframe, you have to give it a name!

To select all columns except a certain one, use a minus sign

```r
select(our_data, c(-homeworld, -gender))
```

```
## # A tibble: 87 × 9
##    name    height  mass hair_color skin_color eye_color birth_year sex   species
##    <chr>    <dbl> <dbl> <chr>      <chr>      <chr>          <dbl> <chr> <chr>  
##  1 Luke S…    172    77 blond      fair       blue            19   male  Human  
##  2 C-3PO      167    75 <NA>       gold       yellow         112   none  Droid  
##  3 R2-D2       96    32 <NA>       white, bl… red             33   none  Droid  
##  4 Darth …    202   136 none       white      yellow          41.9 male  Human  
##  5 Leia O…    150    49 brown      light      brown           19   fema… Human  
##  6 Owen L…    178   120 brown, gr… light      blue            52   male  Human  
##  7 Beru W…    165    75 brown      light      blue            47   fema… Human  
##  8 R5-D4       97    32 <NA>       white, red red             NA   none  Droid  
##  9 Biggs …    183    84 black      light      brown           24   male  Human  
## 10 Obi-Wa…    182    77 auburn, w… fair       blue-gray       57   male  Human  
## # … with 77 more rows
```
…
Filter the data frame to include droids OR humans

```r
filter(our_data, species == "Droid" | species == "Human")
```

```
## # A tibble: 41 × 11
##    name    height  mass hair_color  skin_color eye_color birth_year sex   gender
##    <chr>    <dbl> <dbl> <chr>       <chr>      <chr>          <dbl> <chr> <chr> 
##  1 Luke S…    172    77 blond       fair       blue            19   male  mascu…
##  2 C-3PO      167    75 <NA>        gold       yellow         112   none  mascu…
##  3 R2-D2       96    32 <NA>        white, bl… red             33   none  mascu…
##  4 Darth …    202   136 none        white      yellow          41.9 male  mascu…
##  5 Leia O…    150    49 brown       light      brown           19   fema… femin…
##  6 Owen L…    178   120 brown, grey light      blue            52   male  mascu…
##  7 Beru W…    165    75 brown       light      blue            47   fema… femin…
##  8 R5-D4       97    32 <NA>        white, red red             NA   none  mascu…
##  9 Biggs …    183    84 black       light      brown           24   male  mascu…
## 10 Obi-Wa…    182    77 auburn, wh… fair       blue-gray       57   male  mascu…
## # … with 31 more rows, and 2 more variables: homeworld <chr>, species <chr>
```
…
### Piping
What if we want to do those things all in one step??? The tidyverse allows us to chain functions together with %>%. This is called a pipe and the pipe connects the LHS to the RHS (like reading a book). Let's make a new dataframe where we select the name, height, and mass. Filter out those who are shorter than 100 cm.

```r
select(our_data, name, height, mass)
```

```
## # A tibble: 87 × 3
##    name               height  mass
##    <chr>               <dbl> <dbl>
##  1 Luke Skywalker        172    77
##  2 C-3PO                 167    75
##  3 R2-D2                  96    32
##  4 Darth Vader           202   136
##  5 Leia Organa           150    49
##  6 Owen Lars             178   120
##  7 Beru Whitesun lars    165    75
##  8 R5-D4                  97    32
##  9 Biggs Darklighter     183    84
## 10 Obi-Wan Kenobi        182    77
## # … with 77 more rows
```

```r
our_data %>% select(name, height, mass)
```

```
## # A tibble: 87 × 3
##    name               height  mass
##    <chr>               <dbl> <dbl>
##  1 Luke Skywalker        172    77
##  2 C-3PO                 167    75
##  3 R2-D2                  96    32
##  4 Darth Vader           202   136
##  5 Leia Organa           150    49
##  6 Owen Lars             178   120
##  7 Beru Whitesun lars    165    75
##  8 R5-D4                  97    32
##  9 Biggs Darklighter     183    84
## 10 Obi-Wan Kenobi        182    77
## # … with 77 more rows
```

```r
#select(our_data, c(name, height, mass))

# f(g(x)) == x %>% g() %>% f()
filter(select(our_data, name, height, mass), height >= 100) # order of the function
```

```
## # A tibble: 74 × 3
##    name               height  mass
##    <chr>               <dbl> <dbl>
##  1 Luke Skywalker        172    77
##  2 C-3PO                 167    75
##  3 Darth Vader           202   136
##  4 Leia Organa           150    49
##  5 Owen Lars             178   120
##  6 Beru Whitesun lars    165    75
##  7 Biggs Darklighter     183    84
##  8 Obi-Wan Kenobi        182    77
##  9 Anakin Skywalker      188    84
## 10 Wilhuff Tarkin        180    NA
## # … with 64 more rows
```

```r
our_data %>% select(name, height, mass) %>% filter(height >= 100)
```

```
## # A tibble: 74 × 3
##    name               height  mass
##    <chr>               <dbl> <dbl>
##  1 Luke Skywalker        172    77
##  2 C-3PO                 167    75
##  3 Darth Vader           202   136
##  4 Leia Organa           150    49
##  5 Owen Lars             178   120
##  6 Beru Whitesun lars    165    75
##  7 Biggs Darklighter     183    84
##  8 Obi-Wan Kenobi        182    77
##  9 Anakin Skywalker      188    84
## 10 Wilhuff Tarkin        180    NA
## # … with 64 more rows
```

```r
new_df <- our_data %>% select(name, height, mass) %>% filter(height >= 100)

new_df
```

```
## # A tibble: 74 × 3
##    name               height  mass
##    <chr>               <dbl> <dbl>
##  1 Luke Skywalker        172    77
##  2 C-3PO                 167    75
##  3 Darth Vader           202   136
##  4 Leia Organa           150    49
##  5 Owen Lars             178   120
##  6 Beru Whitesun lars    165    75
##  7 Biggs Darklighter     183    84
##  8 Obi-Wan Kenobi        182    77
##  9 Anakin Skywalker      188    84
## 10 Wilhuff Tarkin        180    NA
## # … with 64 more rows
```
…
```r
#example: example_df <- our_data %>% select(-gender) %>% filter(skin_color == "green")
```


### Arrange
Let's arrange all of the characters by their height

```r
our_data %>% arrange(height)
```

```
## # A tibble: 87 × 11
##    name     height  mass hair_color skin_color eye_color birth_year sex   gender
##    <chr>     <dbl> <dbl> <chr>      <chr>      <chr>          <dbl> <chr> <chr> 
##  1 Yoda         66    17 white      green      brown            896 male  mascu…
##  2 Ratts T…     79    15 none       grey, blue unknown           NA male  mascu…
##  3 Wicket …     88    20 brown      brown      brown              8 male  mascu…
##  4 Dud Bolt     94    45 none       blue, grey yellow            NA male  mascu…
##  5 R2-D2        96    32 <NA>       white, bl… red               33 none  mascu…
##  6 R4-P17       96    NA none       silver, r… red, blue         NA none  femin…
##  7 R5-D4        97    32 <NA>       white, red red               NA none  mascu…
##  8 Sebulba     112    40 none       grey, red  orange            NA male  mascu…
##  9 Gasgano     122    NA none       white, bl… black             NA male  mascu…
## 10 Watto       137    NA black      blue, grey yellow            NA male  mascu…
## # … with 77 more rows, and 2 more variables: homeworld <chr>, species <chr>
```

Notice this does lowest to highest, we can do the other way too

```r
?arrange
our_data %>% arrange(desc(height))
```

```
## # A tibble: 87 × 11
##    name    height  mass hair_color skin_color  eye_color birth_year sex   gender
##    <chr>    <dbl> <dbl> <chr>      <chr>       <chr>          <dbl> <chr> <chr> 
##  1 Yarael…    264    NA none       white       yellow          NA   male  mascu…
##  2 Tarfful    234   136 brown      brown       blue            NA   male  mascu…
##  3 Lama Su    229    88 none       grey        black           NA   male  mascu…
##  4 Chewba…    228   112 brown      unknown     blue           200   male  mascu…
##  5 Roos T…    224    82 none       grey        orange          NA   male  mascu…
##  6 Grievo…    216   159 none       brown, whi… green, y…       NA   male  mascu…
##  7 Taun We    213    NA none       grey        black           NA   fema… femin…
##  8 Rugor …    206    NA none       green       orange          NA   male  mascu…
##  9 Tion M…    206    80 none       grey        black           NA   male  mascu…
## 10 Darth …    202   136 none       white       yellow          41.9 male  mascu…
## # … with 77 more rows, and 2 more variables: homeworld <chr>, species <chr>
```
…
```r
#example: our_data %>% arrange(name)
```

### Mutate
We can create new variables with `mutate()`. Let's create a new variable that measures height in inches instead of centimeters (2.54cm per inch)


```r
our_data %>% mutate(height_inches = height/2.54)
```

```
## # A tibble: 87 × 12
##    name    height  mass hair_color  skin_color eye_color birth_year sex   gender
##    <chr>    <dbl> <dbl> <chr>       <chr>      <chr>          <dbl> <chr> <chr> 
##  1 Luke S…    172    77 blond       fair       blue            19   male  mascu…
##  2 C-3PO      167    75 <NA>        gold       yellow         112   none  mascu…
##  3 R2-D2       96    32 <NA>        white, bl… red             33   none  mascu…
##  4 Darth …    202   136 none        white      yellow          41.9 male  mascu…
##  5 Leia O…    150    49 brown       light      brown           19   fema… femin…
##  6 Owen L…    178   120 brown, grey light      blue            52   male  mascu…
##  7 Beru W…    165    75 brown       light      blue            47   fema… femin…
##  8 R5-D4       97    32 <NA>        white, red red             NA   none  mascu…
##  9 Biggs …    183    84 black       light      brown           24   male  mascu…
## 10 Obi-Wa…    182    77 auburn, wh… fair       blue-gray       57   male  mascu…
## # … with 77 more rows, and 3 more variables: homeworld <chr>, species <chr>,
## #   height_inches <dbl>
```
…
Self check: Create a new variable that is the sum of person's mass and height

```r
# example: our_data %>% mutate(total = height + mass)
```

### Group_by and Summarize
This will group data together and can make summary statistics. Let's find the average height for each species

```r
our_data %>% group_by(species) %>% summarize(avg_height = mean(height))
```

```
## # A tibble: 38 × 2
##    species   avg_height
##    <chr>          <dbl>
##  1 Aleena           79 
##  2 Besalisk        198 
##  3 Cerean          198 
##  4 Chagrian        196 
##  5 Clawdite        168 
##  6 Droid            NA 
##  7 Dug             112 
##  8 Ewok             88 
##  9 Geonosian       183 
## 10 Gungan          209.
## # … with 28 more rows
```
…
### Count
Count the number of each species

```r
our_data %>% count(species)
```

```
## # A tibble: 38 × 2
##    species       n
##    <chr>     <int>
##  1 Aleena        1
##  2 Besalisk      1
##  3 Cerean        1
##  4 Chagrian      1
##  5 Clawdite      1
##  6 Droid         6
##  7 Dug           1
##  8 Ewok          1
##  9 Geonosian     1
## 10 Gungan        3
## # … with 28 more rows
```
…
