…
```r
cps <- read_csv("Lab3.csv")
```

By looking at the dataset, you can see that most of the variables are binary: they take values of either 1 or 0.


```r
cps
```

```
## # A tibble: 8,891 × 5
##    employed black female educ              exper
##       <dbl> <dbl>  <dbl> <chr>             <dbl>
##  1        1     0      1 HS Graduate          20
##  2        0     0      0 HS Graduate          20
##  3        1     1      1 HS Dropout           12
##  4        1     1      0 HS Dropout           17
##  5        0     1      1 HS Graduate          21
##  6        1     0      1 College or Higher    13
##  7        1     0      0 Some College         15
##  8        1     0      1 College or Higher     5
##  9        1     0      1 College or Higher     3
## 10        0     0      1 College or Higher     4
## # … with 8,881 more rows
```
…
